\relax 
\providecommand\HyperFirstAtBeginDocument{\AtBeginDocument}
\HyperFirstAtBeginDocument{\ifx\hyper@anchor\@undefined
\global\let\oldcontentsline\contentsline
\gdef\contentsline#1#2#3#4{\oldcontentsline{#1}{#2}{#3}}
\global\let\oldnewlabel\newlabel
\gdef\newlabel#1#2{\newlabelxx{#1}#2}
\gdef\newlabelxx#1#2#3#4#5#6{\oldnewlabel{#1}{{#2}{#3}}}
\AtEndDocument{\ifx\hyper@anchor\@undefined
\let\contentsline\oldcontentsline
\let\newlabel\oldnewlabel
\fi}
\fi}
\global\let\hyper@last\relax 
\gdef\HyperFirstAtBeginDocument#1{#1}
\providecommand\HyField@AuxAddToFields[1]{}
\@writefile{toc}{\contentsline {chapter}{\numberline {1}\discretionary {-}{}{}Class \discretionary {-}{}{}Index}{1}{chapter.1}}
\@writefile{lof}{\addvspace {10\p@ }}
\@writefile{lot}{\addvspace {10\p@ }}
\@writefile{toc}{\contentsline {section}{\numberline {1.1}\discretionary {-}{}{}Class \discretionary {-}{}{}Hierarchy}{1}{section.1.1}}
\@writefile{toc}{\contentsline {chapter}{\numberline {2}\discretionary {-}{}{}Class \discretionary {-}{}{}Index}{3}{chapter.2}}
\@writefile{lof}{\addvspace {10\p@ }}
\@writefile{lot}{\addvspace {10\p@ }}
\@writefile{toc}{\contentsline {section}{\numberline {2.1}\discretionary {-}{}{}Class \discretionary {-}{}{}List}{3}{section.2.1}}
\@writefile{toc}{\contentsline {chapter}{\numberline {3}\discretionary {-}{}{}Class \discretionary {-}{}{}Documentation}{5}{chapter.3}}
\@writefile{lof}{\addvspace {10\p@ }}
\@writefile{lot}{\addvspace {10\p@ }}
\@writefile{toc}{\contentsline {section}{\numberline {3.1}\discretionary {-}{}{}Capsule \discretionary {-}{}{}Class \discretionary {-}{}{}Reference}{5}{section.3.1}}
\newlabel{class_capsule}{{3.1}{5}{\-Capsule \-Class \-Reference\relax }{section.3.1}{}}
\newlabel{class_capsule_a99b56b26c2cd6bc19eaca15ae85b3bf4}{{3.1}{5}{\-Public \-Member \-Functions\relax }{section*.2}{}}
\newlabel{class_capsule_a6423a32b2152020740b373e77b0478d1}{{3.1}{5}{\-Public \-Member \-Functions\relax }{section*.2}{}}
\newlabel{class_capsule_a2dac7792e387f65ae41653ecc7b67a32}{{3.1}{5}{\-Public \-Member \-Functions\relax }{section*.2}{}}
\newlabel{class_capsule_ac353e2cb12d9654ae7cd7f91e5bf3f39}{{3.1}{5}{\-Public \-Member \-Functions\relax }{section*.2}{}}
\newlabel{class_capsule_a7d5b2b96e2f196beeb1f8135a5916805}{{3.1}{5}{\-Public \-Member \-Functions\relax }{section*.2}{}}
\newlabel{class_capsule_a94f2530492e4d20f630ce1820d0f1b10}{{3.1}{5}{\-Public \-Member \-Functions\relax }{section*.2}{}}
\newlabel{class_capsule_aa75d0cc7a4c88d8abb3bc78bd7f55670}{{3.1}{5}{\-Public \-Member \-Functions\relax }{section*.2}{}}
\newlabel{class_capsule_a4e98e8545ea57fe682c5a2002bd49bdb}{{3.1}{5}{\-Public \-Member \-Functions\relax }{section*.2}{}}
\@writefile{toc}{\contentsline {subsection}{\numberline {3.1.1}\discretionary {-}{}{}Detailed \discretionary {-}{}{}Description}{5}{subsection.3.1.1}}
\gdef \LT@i {\LT@entry 
    {1}{59.44409pt}\LT@entry 
    {1}{288.47205pt}}
\gdef \LT@ii {\LT@entry 
    {1}{59.44409pt}\LT@entry 
    {1}{288.47205pt}}
\gdef \LT@iii {\LT@entry 
    {1}{59.44409pt}\LT@entry 
    {1}{288.47205pt}}
\@writefile{toc}{\contentsline {subsection}{\numberline {3.1.2}\discretionary {-}{}{}Constructor \& \discretionary {-}{}{}Destructor \discretionary {-}{}{}Documentation}{6}{subsection.3.1.2}}
\@writefile{toc}{\contentsline {subsubsection}{\numberline {3.1.2.1}\discretionary {-}{}{}Capsule}{6}{subsubsection.3.1.2.1}}
\newlabel{class_capsule_af5414d1cb105a50c4b6ec99034879d02}{{3.1.2.1}{6}{\-Capsule\relax }{subsubsection.3.1.2.1}{}}
\@writefile{toc}{\contentsline {subsection}{\numberline {3.1.3}\discretionary {-}{}{}Member \discretionary {-}{}{}Function \discretionary {-}{}{}Documentation}{6}{subsection.3.1.3}}
\@writefile{toc}{\contentsline {subsubsection}{\numberline {3.1.3.1}\discretionary {-}{}{}Point\discretionary {-}{}{}In\discretionary {-}{}{}Capsule}{6}{subsubsection.3.1.3.1}}
\newlabel{class_capsule_a34a863668efe27027d5c5d6e5ff8a589}{{3.1.3.1}{6}{\-Point\-In\-Capsule\relax }{subsubsection.3.1.3.1}{}}
\@writefile{toc}{\contentsline {subsubsection}{\numberline {3.1.3.2}\discretionary {-}{}{}Point\discretionary {-}{}{}In\discretionary {-}{}{}Cylinder}{6}{subsubsection.3.1.3.2}}
\newlabel{class_capsule_a04e3a936185094364c066020eae820a8}{{3.1.3.2}{6}{\-Point\-In\-Cylinder\relax }{subsubsection.3.1.3.2}{}}
\gdef \LT@iv {\LT@entry 
    {1}{59.44409pt}\LT@entry 
    {1}{288.47205pt}}
\@writefile{toc}{\contentsline {subsubsection}{\numberline {3.1.3.3}update\discretionary {-}{}{}Position}{7}{subsubsection.3.1.3.3}}
\newlabel{class_capsule_ac0392ba05d6986067301444249c9650b}{{3.1.3.3}{7}{update\-Position\relax }{subsubsection.3.1.3.3}{}}
\@writefile{toc}{\contentsline {section}{\numberline {3.2}\discretionary {-}{}{}Collision\discretionary {-}{}{}Sheath \discretionary {-}{}{}Class \discretionary {-}{}{}Reference}{7}{section.3.2}}
\newlabel{class_collision_sheath}{{3.2}{7}{\-Collision\-Sheath \-Class \-Reference\relax }{section.3.2}{}}
\gdef \LT@v {\LT@entry 
    {1}{59.44409pt}\LT@entry 
    {1}{288.47205pt}}
\gdef \LT@vi {\LT@entry 
    {1}{59.44409pt}\LT@entry 
    {1}{288.47205pt}}
\newlabel{class_collision_sheath_a6af7ae92dac57bd11d526541978cab13}{{3.2}{8}{\-Public \-Member \-Functions\relax }{section*.3}{}}
\newlabel{class_collision_sheath_aa88547a86f1184f603963fefbc6c7c32}{{3.2}{8}{\-Public \-Member \-Functions\relax }{section*.3}{}}
\newlabel{class_collision_sheath_a78b46cc007a3f62103ec20e3c2ac65b0}{{3.2}{8}{\-Public \-Member \-Functions\relax }{section*.3}{}}
\@writefile{toc}{\contentsline {subsection}{\numberline {3.2.1}\discretionary {-}{}{}Detailed \discretionary {-}{}{}Description}{8}{subsection.3.2.1}}
\@writefile{toc}{\contentsline {subsection}{\numberline {3.2.2}\discretionary {-}{}{}Constructor \& \discretionary {-}{}{}Destructor \discretionary {-}{}{}Documentation}{8}{subsection.3.2.2}}
\@writefile{toc}{\contentsline {subsubsection}{\numberline {3.2.2.1}\discretionary {-}{}{}Collision\discretionary {-}{}{}Sheath}{8}{subsubsection.3.2.2.1}}
\newlabel{class_collision_sheath_a4711feffb267b3a668ebc59a8df961f5}{{3.2.2.1}{8}{\-Collision\-Sheath\relax }{subsubsection.3.2.2.1}{}}
\@writefile{toc}{\contentsline {subsection}{\numberline {3.2.3}\discretionary {-}{}{}Member \discretionary {-}{}{}Function \discretionary {-}{}{}Documentation}{8}{subsection.3.2.3}}
\@writefile{toc}{\contentsline {subsubsection}{\numberline {3.2.3.1}assign\discretionary {-}{}{}Joints}{8}{subsubsection.3.2.3.1}}
\newlabel{class_collision_sheath_a82318242b8052a88beaa4740653a017e}{{3.2.3.1}{8}{assign\-Joints\relax }{subsubsection.3.2.3.1}{}}
\@writefile{toc}{\contentsline {subsubsection}{\numberline {3.2.3.2}create\discretionary {-}{}{}Bounding\discretionary {-}{}{}Marker}{8}{subsubsection.3.2.3.2}}
\newlabel{class_collision_sheath_aa303926e172541fd10800d8483b9acf6}{{3.2.3.2}{8}{create\-Bounding\-Marker\relax }{subsubsection.3.2.3.2}{}}
\gdef \LT@vii {\LT@entry 
    {1}{59.44409pt}\LT@entry 
    {1}{288.47205pt}}
\gdef \LT@viii {\LT@entry 
    {1}{59.44409pt}\LT@entry 
    {1}{288.47205pt}}
\gdef \LT@ix {\LT@entry 
    {1}{59.44409pt}\LT@entry 
    {1}{288.47205pt}}
\@writefile{toc}{\contentsline {subsubsection}{\numberline {3.2.3.3}create\discretionary {-}{}{}R\discretionary {-}{}{}Viz\discretionary {-}{}{}Markers}{9}{subsubsection.3.2.3.3}}
\newlabel{class_collision_sheath_a7cbc4253d5738bc919a3ec7bd0f68a28}{{3.2.3.3}{9}{create\-R\-Viz\-Markers\relax }{subsubsection.3.2.3.3}{}}
\@writefile{toc}{\contentsline {subsubsection}{\numberline {3.2.3.4}get\discretionary {-}{}{}Joint\discretionary {-}{}{}Position}{9}{subsubsection.3.2.3.4}}
\newlabel{class_collision_sheath_ae3e0062afd8c9d539baab944e1aae07a}{{3.2.3.4}{9}{get\-Joint\-Position\relax }{subsubsection.3.2.3.4}{}}
\gdef \LT@x {\LT@entry 
    {1}{59.44409pt}\LT@entry 
    {1}{288.47205pt}}
\@writefile{toc}{\contentsline {subsubsection}{\numberline {3.2.3.5}update\discretionary {-}{}{}Joint\discretionary {-}{}{}Angles}{10}{subsubsection.3.2.3.5}}
\newlabel{class_collision_sheath_a0184194cbd6af71c4eb6c61968a3fc1f}{{3.2.3.5}{10}{update\-Joint\-Angles\relax }{subsubsection.3.2.3.5}{}}
\@writefile{toc}{\contentsline {section}{\numberline {3.3}\discretionary {-}{}{}Kraft\discretionary {-}{}{}Bumpers \discretionary {-}{}{}Class \discretionary {-}{}{}Reference}{10}{section.3.3}}
\newlabel{class_kraft_bumpers}{{3.3}{10}{\-Kraft\-Bumpers \-Class \-Reference\relax }{section.3.3}{}}
\newlabel{class_kraft_bumpers_a5af09dd582cbc9baca07f48ca19c7fca}{{3.3}{10}{\-Public \-Member \-Functions\relax }{section*.4}{}}
\@writefile{toc}{\contentsline {subsection}{\numberline {3.3.1}\discretionary {-}{}{}Detailed \discretionary {-}{}{}Description}{10}{subsection.3.3.1}}
\@writefile{toc}{\contentsline {section}{\numberline {3.4}\discretionary {-}{}{}Kraft\discretionary {-}{}{}Collision\discretionary {-}{}{}Sheath \discretionary {-}{}{}Class \discretionary {-}{}{}Reference}{10}{section.3.4}}
\newlabel{class_kraft_collision_sheath}{{3.4}{10}{\-Kraft\-Collision\-Sheath \-Class \-Reference\relax }{section.3.4}{}}
\gdef \LT@xi {\LT@entry 
    {1}{59.44409pt}\LT@entry 
    {1}{288.47205pt}}
\@writefile{toc}{\contentsline {subsection}{\numberline {3.4.1}\discretionary {-}{}{}Detailed \discretionary {-}{}{}Description}{11}{subsection.3.4.1}}
\@writefile{toc}{\contentsline {subsection}{\numberline {3.4.2}\discretionary {-}{}{}Constructor \& \discretionary {-}{}{}Destructor \discretionary {-}{}{}Documentation}{11}{subsection.3.4.2}}
\@writefile{toc}{\contentsline {subsubsection}{\numberline {3.4.2.1}\discretionary {-}{}{}Kraft\discretionary {-}{}{}Collision\discretionary {-}{}{}Sheath}{11}{subsubsection.3.4.2.1}}
\newlabel{class_kraft_collision_sheath_a59be0c46347376a3c6a8fe1c2852df9f}{{3.4.2.1}{11}{\-Kraft\-Collision\-Sheath\relax }{subsubsection.3.4.2.1}{}}
\@writefile{toc}{\contentsline {section}{\numberline {3.5}\discretionary {-}{}{}Line \discretionary {-}{}{}Class \discretionary {-}{}{}Reference}{11}{section.3.5}}
\newlabel{class_line}{{3.5}{11}{\-Line \-Class \-Reference\relax }{section.3.5}{}}
\newlabel{class_line_ae49558eef83fd06207500fc4711b056b}{{3.5}{11}{\-Public \-Member \-Functions\relax }{section*.6}{}}
\newlabel{class_line_aaf638018e98547c8453daae3a448d9e4}{{3.5}{11}{\-Public \-Member \-Functions\relax }{section*.6}{}}
\newlabel{class_line_a97f7711a575ac7b9b562be796e43a2a4}{{3.5}{11}{\-Public \-Member \-Functions\relax }{section*.6}{}}
\newlabel{class_line_abcff747e2806fcbda71db298943913af}{{3.5}{11}{\-Public \-Member \-Functions\relax }{section*.6}{}}
\newlabel{class_line_a113b8e6bf55a96df795e8644ea68f4a0}{{3.5}{11}{\-Public \-Member \-Functions\relax }{section*.6}{}}
\newlabel{class_line_aeb56cf84ccaf8bdd52fef7b410778f6f}{{3.5}{11}{\-Public \-Member \-Functions\relax }{section*.6}{}}
\newlabel{class_line_ab7bbf6e9afa2e2eb930a8d2ffba22c36}{{3.5}{11}{\-Public \-Attributes\relax }{section*.7}{}}
\newlabel{class_line_afca8cb662b46ae1724b7c38c3eab2069}{{3.5}{12}{\-Public \-Attributes\relax }{section*.7}{}}
\newlabel{class_line_ad774bf118233637493376fbb700a748f}{{3.5}{12}{\-Public \-Attributes\relax }{section*.7}{}}
\newlabel{class_line_a71cebd9294eba776de6a954de7b2d1ee}{{3.5}{12}{\-Public \-Attributes\relax }{section*.7}{}}
\@writefile{toc}{\contentsline {subsection}{\numberline {3.5.1}\discretionary {-}{}{}Detailed \discretionary {-}{}{}Description}{12}{subsection.3.5.1}}
\@writefile{toc}{\contentsline {section}{\numberline {3.6}\discretionary {-}{}{}Point \discretionary {-}{}{}Class \discretionary {-}{}{}Reference}{12}{section.3.6}}
\newlabel{class_point}{{3.6}{12}{\-Point \-Class \-Reference\relax }{section.3.6}{}}
\newlabel{class_point_a4cb527de0554ecc611698cdca9b6d3af}{{3.6}{12}{\-Public \-Member \-Functions\relax }{section*.8}{}}
\newlabel{class_point_a521efb242f75a10d18b3320417cdaab0}{{3.6}{12}{\-Public \-Member \-Functions\relax }{section*.8}{}}
\newlabel{class_point_a4360062bbb0d9001b11eef63aca5bf29}{{3.6}{12}{\-Public \-Member \-Functions\relax }{section*.8}{}}
\newlabel{class_point_a736eee3cde27b28ef5d3b321eb110d3f}{{3.6}{12}{\-Public \-Member \-Functions\relax }{section*.8}{}}
\newlabel{class_point_af3165e98a5d9802804080ebaea7c66c8}{{3.6}{12}{\-Public \-Member \-Functions\relax }{section*.8}{}}
\newlabel{class_point_a0652e1666a4519b43722c0da75de7522}{{3.6}{12}{\-Public \-Member \-Functions\relax }{section*.8}{}}
\newlabel{class_point_a6efe3ea88e39647c10078729b8cb78e8}{{3.6}{12}{\-Public \-Member \-Functions\relax }{section*.8}{}}
\newlabel{class_point_a0c38decdffbb93f0c19cf38e923cf1ae}{{3.6}{12}{\-Public \-Member \-Functions\relax }{section*.8}{}}
\newlabel{class_point_a05dfe2dfbde813ad234b514f30e662f1}{{3.6}{12}{\-Public \-Attributes\relax }{section*.9}{}}
\newlabel{class_point_a6101960c8d2d4e8ea1d32c9234bbeb8d}{{3.6}{12}{\-Public \-Attributes\relax }{section*.9}{}}
\newlabel{class_point_a9a666531e0e99adff132be93d2407d0c}{{3.6}{12}{\-Public \-Attributes\relax }{section*.9}{}}
\@writefile{toc}{\contentsline {subsection}{\numberline {3.6.1}\discretionary {-}{}{}Detailed \discretionary {-}{}{}Description}{13}{subsection.3.6.1}}
\@writefile{toc}{\contentsline {section}{\numberline {3.7}\discretionary {-}{}{}Quaternion \discretionary {-}{}{}Class \discretionary {-}{}{}Reference}{13}{section.3.7}}
\newlabel{class_quaternion}{{3.7}{13}{\-Quaternion \-Class \-Reference\relax }{section.3.7}{}}
\newlabel{class_quaternion_a8b781b743e14bf22ea72eefebfb90fd4}{{3.7}{13}{\-Public \-Member \-Functions\relax }{section*.10}{}}
\newlabel{class_quaternion_a672a54be95ccf455bf4309d4b648d2fd}{{3.7}{13}{\-Public \-Member \-Functions\relax }{section*.10}{}}
\newlabel{class_quaternion_a0eb50797dc4a25834a2825bde8ee593f}{{3.7}{13}{\-Public \-Member \-Functions\relax }{section*.10}{}}
\newlabel{class_quaternion_abcb5d53d3312eca0f169d625f5d56dac}{{3.7}{13}{\-Public \-Member \-Functions\relax }{section*.10}{}}
\newlabel{class_quaternion_a8b80f191a3155cc0158d2b4f4d50b2cb}{{3.7}{13}{\-Public \-Attributes\relax }{section*.11}{}}
\newlabel{class_quaternion_a3bd3f270462944423611f44e19d2511b}{{3.7}{13}{\-Public \-Attributes\relax }{section*.11}{}}
\newlabel{class_quaternion_a625cb732d8ff3083e7852b86b736ab29}{{3.7}{13}{\-Public \-Attributes\relax }{section*.11}{}}
\newlabel{class_quaternion_aa44a65ab99e36f6ab8771030eed8a7ad}{{3.7}{13}{\-Public \-Attributes\relax }{section*.11}{}}
\@writefile{toc}{\contentsline {subsection}{\numberline {3.7.1}\discretionary {-}{}{}Detailed \discretionary {-}{}{}Description}{13}{subsection.3.7.1}}
\@writefile{toc}{\contentsline {section}{\numberline {3.8}\discretionary {-}{}{}Transform\discretionary {-}{}{}Matrix \discretionary {-}{}{}Class \discretionary {-}{}{}Reference}{13}{section.3.8}}
\newlabel{class_transform_matrix}{{3.8}{13}{\-Transform\-Matrix \-Class \-Reference\relax }{section.3.8}{}}
\newlabel{class_transform_matrix_a56056e5e88389c3545ad95d39c839f18}{{3.8}{14}{\-Public \-Member \-Functions\relax }{section*.12}{}}
\newlabel{class_transform_matrix_a8f44a3037c266faed5c23ac543625f9f}{{3.8}{14}{\-Public \-Member \-Functions\relax }{section*.12}{}}
\newlabel{class_transform_matrix_aa7058e5042c0dada9ba017f6d246d275}{{3.8}{14}{\-Public \-Member \-Functions\relax }{section*.12}{}}
\newlabel{class_transform_matrix_aecbc79ae9b05c3a80632ca6fc007f33c}{{3.8}{14}{\-Public \-Member \-Functions\relax }{section*.12}{}}
\newlabel{class_transform_matrix_a59762f4c85dd365f07ae8f0d13cc0a49}{{3.8}{14}{\-Public \-Member \-Functions\relax }{section*.12}{}}
\newlabel{class_transform_matrix_a5585ba2db51a2d85e4e6b9c26eaa3863}{{3.8}{14}{\-Public \-Member \-Functions\relax }{section*.12}{}}
\newlabel{class_transform_matrix_ae0f387afa73d66017b31519b6274f933}{{3.8}{14}{\-Public \-Member \-Functions\relax }{section*.12}{}}
\newlabel{class_transform_matrix_aca440439d2e192aff71ff17f58e1a4c0}{{3.8}{14}{\-Public \-Member \-Functions\relax }{section*.12}{}}
\newlabel{class_transform_matrix_a4cd464097af7ba83a25e34970bb00bd0}{{3.8}{14}{\-Public \-Attributes\relax }{section*.13}{}}
\@writefile{toc}{\contentsline {subsection}{\numberline {3.8.1}\discretionary {-}{}{}Detailed \discretionary {-}{}{}Description}{14}{subsection.3.8.1}}
\@writefile{toc}{\contentsline {section}{\numberline {3.9}\discretionary {-}{}{}Vector \discretionary {-}{}{}Class \discretionary {-}{}{}Reference}{14}{section.3.9}}
\newlabel{class_vector}{{3.9}{14}{\-Vector \-Class \-Reference\relax }{section.3.9}{}}
\newlabel{class_vector_a19d705a4f487cc6bff71030d1655dbb9}{{3.9}{14}{\-Public \-Member \-Functions\relax }{section*.14}{}}
\newlabel{class_vector_a1ebc0eae82da2db483e5604f6a68837c}{{3.9}{14}{\-Public \-Member \-Functions\relax }{section*.14}{}}
\newlabel{class_vector_a99fd0f66bd855348069d3dbde6d94c37}{{3.9}{14}{\-Public \-Member \-Functions\relax }{section*.14}{}}
\newlabel{class_vector_aeb1d6a3d5a8331bdbf526200661ddf4a}{{3.9}{15}{\-Public \-Member \-Functions\relax }{section*.14}{}}
\newlabel{class_vector_adbabac79afbb4fc01a162e53e021c933}{{3.9}{15}{\-Public \-Member \-Functions\relax }{section*.14}{}}
\newlabel{class_vector_a08d9d4de6f5122f027c37848cbbf0eeb}{{3.9}{15}{\-Public \-Member \-Functions\relax }{section*.14}{}}
\newlabel{class_vector_a95871c72021f3a2cacd91d121328fd93}{{3.9}{15}{\-Public \-Member \-Functions\relax }{section*.14}{}}
\newlabel{class_vector_aba1f6e82ce080ae872ecd1aebc240db7}{{3.9}{15}{\-Public \-Member \-Functions\relax }{section*.14}{}}
\@writefile{toc}{\contentsline {subsection}{\numberline {3.9.1}\discretionary {-}{}{}Detailed \discretionary {-}{}{}Description}{15}{subsection.3.9.1}}
